\relax 
\providecommand\HyperFirstAtBeginDocument{\AtBeginDocument}
\HyperFirstAtBeginDocument{\ifx\hyper@anchor\@undefined
\global\let\oldcontentsline\contentsline
\gdef\contentsline#1#2#3#4{\oldcontentsline{#1}{#2}{#3}}
\global\let\oldnewlabel\newlabel
\gdef\newlabel#1#2{\newlabelxx{#1}#2}
\gdef\newlabelxx#1#2#3#4#5#6{\oldnewlabel{#1}{{#2}{#3}}}
\AtEndDocument{\ifx\hyper@anchor\@undefined
\let\contentsline\oldcontentsline
\let\newlabel\oldnewlabel
\fi}
\fi}
\global\let\hyper@last\relax 
\gdef\HyperFirstAtBeginDocument#1{#1}
\providecommand\HyField@AuxAddToFields[1]{}
\bibstyle{biblatex}
\bibdata{PolSpinPaper-blx,PolSpinPaper,bibtex/bib/ATLAS}
\citation{biblatex-control}
\@writefile{toc}{\boolfalse {citerequest}\boolfalse {citetracker}\boolfalse {pagetracker}\boolfalse {backtracker}\relax }
\@writefile{lof}{\boolfalse {citerequest}\boolfalse {citetracker}\boolfalse {pagetracker}\boolfalse {backtracker}\relax }
\@writefile{lot}{\boolfalse {citerequest}\boolfalse {citetracker}\boolfalse {pagetracker}\boolfalse {backtracker}\relax }
\select@language{UKenglish}
\@writefile{toc}{\defcounter {refsection}{0}\relax }\@writefile{toc}{\select@language{UKenglish}}
\@writefile{lof}{\defcounter {refsection}{0}\relax }\@writefile{lof}{\select@language{UKenglish}}
\@writefile{lot}{\defcounter {refsection}{0}\relax }\@writefile{lot}{\select@language{UKenglish}}
\citation{topdisc1}
\citation{topdisc2}
\citation{lifetime_theo}
\citation{lifetime_d0}
\citation{lifetime_cdf}
\citation{bernreuther_spin2013}
\citation{bernreuther_spin2013}
\citation{spin_obs_theo}
\citation{godbole_chargedhiggs}
\citation{godbole_sbottom}
\citation{spin_atlas1}
\citation{pol_atlas}
\citation{Aad:2015bfa}
\citation{spin_atlas2}
\citation{spinpol_cms}
\citation{Khachatryan:2015tzo}
\citation{spinpol_cms8TeV}
\citation{pol_d0_ljets}
\citation{spin_cdf}
\@writefile{toc}{\contentsline {section}{\numberline {1}Introduction}{2}{section.1}}
\newlabel{sec:intro}{{1}{2}{Introduction\relax }{section.1}{}}
\citation{bernreuther_observables}
\citation{PERF-2007-01}
\@writefile{toc}{\contentsline {section}{\numberline {2}ATLAS detector}{3}{section.2}}
\newlabel{sec:detector}{{2}{3}{ATLAS detector\relax }{section.2}{}}
\citation{bernreuther_observables}
\citation{bernreuther_spin2013}
\citation{Bernreuther:2004jv}
\citation{bernreuther_observables}
\citation{pol_atlas}
\citation{spin_atlas1}
\citation{Aad:2015bfa}
\citation{spin_atlas2}
\citation{spinpol_cms}
\citation{Khachatryan:2015tzo}
\citation{spinpol_cms8TeV}
\citation{bernreuther_spin2013}
\citation{baumgart_transpol}
\citation{pol_d0_ljets}
\@writefile{toc}{\contentsline {section}{\numberline {3}Observables}{4}{section.3}}
\newlabel{sec:observables}{{3}{4}{Observables\relax }{section.3}{}}
\newlabel{eqn:double-diff}{{1}{4}{Observables\relax }{equation.3.1}{}}
\newlabel{eqn:spin_relation}{{2}{4}{Observables\relax }{equation.3.2}{}}
\newlabel{eqn:single-diff}{{3}{4}{Observables\relax }{equation.3.3}{}}
\newlabel{eqn:pol_relation}{{4}{4}{Observables\relax }{equation.3.4}{}}
\citation{bernreuther_observables}
\citation{ATLAS:2014wva}
\citation{bernreuther_observables}
\citation{bernreuther_observables}
\@writefile{lot}{\contentsline {table}{\numberline {1}{\ignorespaces List of the observables and corresponding expectation values measured in this analysis. The SM predictions at NLO are also shown~\cite {bernreuther_observables}; expectation values predicted to be 0 at NLO are exactly 0 due to term cancellations. The expectation values can be obtained from the corresponding observables using the relations from Equations~(\ref  {eqn:spin_relation}) and (\ref  {eqn:pol_relation}). The uncertainties on the predictions refer to scale uncertainties only; values below 10$^{-4}$ are not quoted.\relax }}{5}{table.caption.1}}
\providecommand*\caption@xref[2]{\@setref\relax\@undefined{#1}}
\newlabel{tab:observables}{{1}{5}{List of the observables and corresponding expectation values measured in this analysis. The SM predictions at NLO are also shown~\cite {bernreuther_observables}; expectation values predicted to be 0 at NLO are exactly 0 due to term cancellations. The expectation values can be obtained from the corresponding observables using the relations from Equations~(\ref {eqn:spin_relation}) and (\ref {eqn:pol_relation}). The uncertainties on the predictions refer to scale uncertainties only; values below 10$^{-4}$ are not quoted.\relax \relax }{table.caption.1}{}}
\citation{powhegbox}
\citation{powhegbox2}
\citation{powhegbox3}
\citation{Frixione:2007nw}
\citation{ATL-PHYS-PUB-2015-002}
\citation{ATL-PHYS-PUB-2015-011}
\citation{ct10}
\citation{pythia6}
\citation{perugia_tune}
\citation{Aad:2010ah}
\citation{geant4}
\citation{ATLAS:1300517}
\citation{Re:2010bp}
\citation{ct10}
\citation{perugia_tune}
\citation{Pumplin:2002vw}
\citation{ATL-PHYS-PUB-2011-008}
\citation{alpgen}
\citation{madgraph}
\citation{jimmy}
\citation{pythia6}
\citation{pythia8}
\citation{alpgen}
\citation{madgraph}
\citation{jimmy}
\citation{pythia6}
\citation{pythia8}
\citation{perugia_tune}
\citation{mcatnlo1}
\citation{mcatnlo2}
\citation{mcatnlo1}
\citation{mcatnlo2}
\@writefile{lot}{\contentsline {table}{\numberline {2}{\ignorespaces MC generators and parton showers used for the signal and background processes. Samples in the lower part of the table are used together with the other samples to estimate the fake-lepton background. The parton distribution functions (PDF) used by the generator and the tunes used for the parton shower are also shown. The versions of the different generators are 2.14 for {\sc  Alpgen}\xspace  ~\cite {alpgen}, 5.1.4.8 for {\sc  MadGraph}\xspace  ~\cite {madgraph}, 4.31 for {\sc  Herwig}\xspace  \tmspace  -\thinmuskip {.1667em}6+{\sc  Jimmy}\xspace  ~\cite {jimmy}, 1, r2330 for {\sc  Powheg}-hvq\xspace  , 6.426 for {\sc  Pythia6}\xspace  ~\cite {pythia6} and 8.165 for {\sc  Pythia8}\xspace  ~\cite {pythia8}.\relax }}{6}{table.caption.2}}
\newlabel{tab:mc_gens_bkg}{{2}{6}{MC generators and parton showers used for the signal and background processes. Samples in the lower part of the table are used together with the other samples to estimate the fake-lepton background. The parton distribution functions (PDF) used by the generator and the tunes used for the parton shower are also shown. The versions of the different generators are 2.14 for \alpgen ~\cite {alpgen}, 5.1.4.8 for \madgraph ~\cite {madgraph}, 4.31 for \herwig \!6+\jimmy ~\cite {jimmy}, 1, r2330 for \powheg , 6.426 for \pythia ~\cite {pythia6} and 8.165 for \pythiaeight ~\cite {pythia8}.\relax \relax }{table.caption.2}{}}
\@writefile{toc}{\contentsline {section}{\numberline {4}Data and simulation samples}{6}{section.4}}
\newlabel{sec:mcsamples}{{4}{6}{Data and simulation samples\relax }{section.4}{}}
\citation{elec_eff}
\citation{Aad:2014rra}
\citation{antikt_ref}
\citation{atlas_jes}
\citation{Aad:2015ydr}
\@writefile{lot}{\contentsline {table}{\numberline {3}{\ignorespaces List of \ensuremath  {t\bar{t}}\xspace  samples used for studies of the modelling uncertainties. The PDF set is CT10 for all of them. The version of the {\sc  MC@NLO}\xspace  generator~\cite {mcatnlo1,mcatnlo2} is 4.01. \relax }}{7}{table.caption.3}}
\newlabel{tab:mc_gens_signal}{{3}{7}{List of \ttbar samples used for studies of the modelling uncertainties. The PDF set is CT10 for all of them. The version of the \mcatnlo generator~\cite {mcatnlo1,mcatnlo2} is 4.01. \relax \relax }{table.caption.3}{}}
\@writefile{toc}{\contentsline {section}{\numberline {5}Event selection and background estimation}{7}{section.5}}
\newlabel{sec:selection}{{5}{7}{Event selection and background estimation\relax }{section.5}{}}
\@writefile{toc}{\contentsline {subsection}{\numberline {5.1}Object selection}{7}{subsection.5.1}}
\citation{atlas_met}
\@writefile{toc}{\contentsline {subsection}{\numberline {5.2}Event selection}{8}{subsection.5.2}}
\newlabel{sec:obj_sel}{{5.2}{8}{Event selection\relax }{subsection.5.2}{}}
\@writefile{toc}{\contentsline {subsection}{\numberline {5.3}Background estimation}{8}{subsection.5.3}}
\newlabel{sec:bkg}{{5.3}{8}{Background estimation\relax }{subsection.5.3}{}}
\citation{Abbott:1997fv}
\citation{Aad:2015jfa}
\citation{Olive:2016xmw}
\@writefile{toc}{\contentsline {subsection}{\numberline {5.4}Kinematic reconstruction of the $t\bar{t}$ system}{9}{subsection.5.4}}
\newlabel{sec:reco}{{5.4}{9}{Kinematic reconstruction of the $t\bar {t}$ system\relax }{subsection.5.4}{}}
\@writefile{toc}{\contentsline {subsection}{\numberline {5.5}Event yields and kinematic distributions}{10}{subsection.5.5}}
\@writefile{lof}{\contentsline {figure}{\numberline {1}{\ignorespaces Comparison of the number of jets, jet \ensuremath  {p_{\text  {T}}}\xspace  and lepton \ensuremath  {p_{\text  {T}}}\xspace  distributions between data and predictions after the event selection in the combined dilepton channel. The ratio between the data and prediction is also shown. The grey area shows the statistical and systematic uncertainty on the signal and background. The $t\bar{t}V$, diboson and fake-lepton backgrounds are shown together in the "Others" category. Only the events passing the kinematic reconstruction are considered in the distributions.\relax }}{10}{figure.caption.4}}
\newlabel{fig:sel_dataMC}{{1}{10}{Comparison of the number of jets, jet \pt and lepton \pt distributions between data and predictions after the event selection in the combined dilepton channel. The ratio between the data and prediction is also shown. The grey area shows the statistical and systematic uncertainty on the signal and background. The $t\bar {t}V$, diboson and fake-lepton backgrounds are shown together in the "Others" category. Only the events passing the kinematic reconstruction are considered in the distributions.\relax \relax }{figure.caption.4}{}}
\@writefile{lof}{\contentsline {figure}{\numberline {2}{\ignorespaces Comparison between data and predictions after the kinematic reconstruction in the combined dilepton channel. The distributions of the top quark \ensuremath  {p_{\text  {T}}}\xspace  and \ensuremath  {\etaa }\xspace  are shown, as well as the \ensuremath  {t\bar{t}}\xspace  \ensuremath  {p_{\text  {T}}}\xspace  and mass. The ratio between the data and prediction is also shown. The grey area shows the statistical and systematic uncertainty on the signal and background. The $t\bar{t}V$, diboson and fake-lepton backgrounds are shown together in the "Others" category. The last bin of the distribution corresponds to the overflow.\relax }}{11}{figure.caption.5}}
\newlabel{fig:reco_dataMC}{{2}{11}{Comparison between data and predictions after the kinematic reconstruction in the combined dilepton channel. The distributions of the top quark \pt and \eta are shown, as well as the \ttbar \pt and mass. The ratio between the data and prediction is also shown. The grey area shows the statistical and systematic uncertainty on the signal and background. The $t\bar {t}V$, diboson and fake-lepton backgrounds are shown together in the "Others" category. The last bin of the distribution corresponds to the overflow.\relax \relax }{figure.caption.5}{}}
\citation{Cacciari:2008gn}
\citation{Cacciari:2008gn}
\@writefile{lot}{\contentsline {table}{\numberline {4}{\ignorespaces Event yields of \ensuremath  {t\bar{t}}\xspace  signal, background processes and data after the full event selection and the kinematic reconstruction. The given uncertainties correspond to the combination of statistical and systematic uncertainties of the individual processes. The last column represents the inclusive dilepton channel.\relax }}{12}{table.caption.6}}
\newlabel{tab:event_yields}{{4}{12}{Event yields of \ttbar signal, background processes and data after the full event selection and the kinematic reconstruction. The given uncertainties correspond to the combination of statistical and systematic uncertainties of the individual processes. The last column represents the inclusive dilepton channel.\relax \relax }{table.caption.6}{}}
\@writefile{toc}{\contentsline {section}{\numberline {6}Analysis}{12}{section.6}}
\newlabel{sec:analysis}{{6}{12}{Analysis\relax }{section.6}{}}
\@writefile{toc}{\contentsline {subsection}{\numberline {6.1}Truth level definitions}{12}{subsection.6.1}}
\@writefile{toc}{\contentsline {subsubsection}{\numberline {6.1.1}Parton-level definition}{12}{subsubsection.6.1.1}}
\@writefile{toc}{\contentsline {subsubsection}{\numberline {6.1.2}Stable-particle definition and fiducial region}{12}{subsubsection.6.1.2}}
\citation{Aad:2015eia}
\citation{FBU}
\@writefile{toc}{\contentsline {subsection}{\numberline {6.2}Unfolding}{13}{subsection.6.2}}
\newlabel{sec:unfolding}{{6.2}{13}{Unfolding\relax }{subsection.6.2}{}}
\@writefile{toc}{\contentsline {subsection}{\numberline {6.3}Systematic uncertainties}{14}{subsection.6.3}}
\newlabel{sec:systematics}{{6.3}{14}{Systematic uncertainties\relax }{subsection.6.3}{}}
\@writefile{lof}{\contentsline {figure}{\numberline {3}{\ignorespaces Input distributions for the unfolding procedure of \ensuremath  {\qopname  \relax o{cos}\theta _{+}^{k}}\xspace  , \ensuremath  {\qopname  \relax o{cos}\theta _{+}^{n} \qopname  \relax o{cos}\theta _{-}^{n}}\xspace  , and \ensuremath  {\qopname  \relax o{cos}\theta _{+}^{n} \qopname  \relax o{cos}\theta _{-}^{r} - \qopname  \relax o{cos}\theta _{+}^{r} \qopname  \relax o{cos}\theta _{-}^{n}}\xspace  . The ratio between the data and prediction is also shown. The grey area shows the total uncertainty on the signal and background. The $t\bar{t}V$, diboson and fake-lepton backgrounds are shown together in the "Others" category.\relax }}{15}{figure.caption.7}}
\newlabel{fig:unf_input_dataMC}{{3}{15}{Input distributions for the unfolding procedure of \helcosplus , \transcoscos , and \transrcoscosdiff . The ratio between the data and prediction is also shown. The grey area shows the total uncertainty on the signal and background. The $t\bar {t}V$, diboson and fake-lepton backgrounds are shown together in the "Others" category.\relax \relax }{figure.caption.7}{}}
\@writefile{lof}{\contentsline {figure}{\numberline {4}{\ignorespaces Response matrices of observables \ensuremath  {\qopname  \relax o{cos}\theta _{+}^{k}}\xspace  , \ensuremath  {\qopname  \relax o{cos}\theta _{+}^{n} \qopname  \relax o{cos}\theta _{-}^{n}}\xspace  , and \ensuremath  {\qopname  \relax o{cos}\theta _{+}^{n} \qopname  \relax o{cos}\theta _{-}^{r} - \qopname  \relax o{cos}\theta _{+}^{r} \qopname  \relax o{cos}\theta _{-}^{n}}\xspace  . at parton level. They are divided into $ee$, $\mu \mu $, and $e\mu $ channels. The matrices are normalised per truth bin (rows) for each channel separately.\relax }}{16}{figure.caption.8}}
\newlabel{fig:unf_resmat}{{4}{16}{Response matrices of observables \helcosplus , \transcoscos , and \transrcoscosdiff . at parton level. They are divided into $ee$, $\mu \mu $, and $e\mu $ channels. The matrices are normalised per truth bin (rows) for each channel separately.\relax \relax }{figure.caption.8}{}}
\citation{atlas_trigger_perf}
\citation{atlas_elec_sf}
\citation{atlas_trigger_perf}
\citation{atlas_elec_sf}
\citation{atlas_jes}
\citation{atlas_btagging1}
\citation{atlas_btagging2}
\@writefile{toc}{\contentsline {subsubsection}{\numberline {6.3.1}Detector modelling uncertainties}{17}{subsubsection.6.3.1}}
\citation{atlas_met2}
\citation{Kidonakis:2012db}
\citation{Campbell:2012dh}
\citation{Garzelli:2012bn}
\@writefile{toc}{\contentsline {subsubsection}{\numberline {6.3.2}Background-related uncertainties}{18}{subsubsection.6.3.2}}
\@writefile{toc}{\contentsline {subsubsection}{\numberline {6.3.3}Modelling uncertainties}{18}{subsubsection.6.3.3}}
\newlabel{sec:modellingsysts}{{6.3.3}{18}{Modelling uncertainties\relax }{subsubsection.6.3.3}{}}
\citation{atlas_isrfsr}
\citation{ct10}
\citation{mstw}
\citation{nnpdf}
\citation{PDF4LHC}
\citation{Aad:2015mbv}
\citation{Khachatryan:2015oqa}
\@writefile{toc}{\contentsline {subsubsection}{\numberline {6.3.4}Other uncertainties}{19}{subsubsection.6.3.4}}
\citation{Aaboud:2016igd}
\citation{bernreuther_observables}
\citation{spinpol_cms8TeV}
\citation{pol_atlas}
\citation{spin_atlas1}
\citation{Aad:2015bfa}
\citation{pol_d0_ljets}
\citation{Baumgart:2013yra}
\citation{pol_d0_ljets}
\citation{Baumgart:2013yra}
\citation{pol_d0_ljets}
\@writefile{toc}{\contentsline {section}{\numberline {7}Results}{20}{section.7}}
\newlabel{sec:results}{{7}{20}{Results\relax }{section.7}{}}
\@writefile{lot}{\contentsline {table}{\numberline {5}{\ignorespaces Results corrected to parton level in the full phase-space and to stable-particle level in the fiducial phase-space. The central value with the total uncertainty is shown as well as the contribution from the various systematic uncertainty categories. The uncertainty from the "Background" category is not shown because it is always smaller than 0.001. The total uncertainty corresponds to the sum in quadrature of the uncertainty obtained from the unfolding procedure with marginalisation (including the background and detector modelling), the signal modelling and the "Others" category. The numbers shown for the "Detector" category correspond to the sum in quadrature of the individual estimates obtained as described in Section~\ref  {sec:systematics}. The sum in quadrature of the values in the various columns thus does not necessarily match with the total uncertainty. The uncertainty related to the top quark mass is presented separately. It is shown as "-" when found to be compatible with zero. \relax }}{21}{table.caption.12}}
\newlabel{tab:results_summary}{{5}{21}{Results corrected to parton level in the full phase-space and to stable-particle level in the fiducial phase-space. The central value with the total uncertainty is shown as well as the contribution from the various systematic uncertainty categories. The uncertainty from the "Background" category is not shown because it is always smaller than 0.001. The total uncertainty corresponds to the sum in quadrature of the uncertainty obtained from the unfolding procedure with marginalisation (including the background and detector modelling), the signal modelling and the "Others" category. The numbers shown for the "Detector" category correspond to the sum in quadrature of the individual estimates obtained as described in Section~\ref {sec:systematics}. The sum in quadrature of the values in the various columns thus does not necessarily match with the total uncertainty. The uncertainty related to the top quark mass is presented separately. It is shown as "-" when found to be compatible with zero. \relax \relax }{table.caption.12}{}}
\@writefile{lot}{\contentsline {table}{\numberline {6}{\ignorespaces Dependence of polarisation and spin correlation measurements on the MC top quark mass. The slope, computed from the reference value of 172.5 \GeV, is indicated for each measurement with its statistical uncertainty in units of $\GeV^{-1}$. Slopes which are compatible with zero within the uncertainty are indicated with "-".\relax }}{22}{table.caption.13}}
\newlabel{tab:massSlope}{{6}{22}{Dependence of polarisation and spin correlation measurements on the MC top quark mass. The slope, computed from the reference value of 172.5 \GeV , is indicated for each measurement with its statistical uncertainty in units of $\GeV ^{-1}$. Slopes which are compatible with zero within the uncertainty are indicated with "-".\relax \relax }{table.caption.13}{}}
\@writefile{lot}{\contentsline {table}{\numberline {7}{\ignorespaces Direct measurements of polarisations or spin correlations for different experiments and measurement techniques. If more than one measurement from an experiment is performed with the same technique, the measurement with the smallest total uncertainty is shown. If a measurement quotes polarisation values for a CP-conserving and a CP-violating production mechanism, the result for the CP-conserving case is shown in the table (P and C denote the parity and charge-conjugation transformations, respectively). The template fits for the polarisation observables usually use the information of both the top and antitop quark decay chains. In this case, only one polarisation value can be quoted as the result and is shown for both columns of polarisation along the same axis. The SM predictions of the polarisations at the Tevatron are slightly different~\cite {Baumgart:2013yra,pol_d0_ljets} due to the different dominant production mechanism, which is \ensuremath  {q\bar{q}}\xspace  annihilation. Dashes indicate no measurement for the corresponding analysis.\relax }}{22}{table.caption.14}}
\newlabel{tab:measurements}{{7}{22}{Direct measurements of polarisations or spin correlations for different experiments and measurement techniques. If more than one measurement from an experiment is performed with the same technique, the measurement with the smallest total uncertainty is shown. If a measurement quotes polarisation values for a CP-conserving and a CP-violating production mechanism, the result for the CP-conserving case is shown in the table (P and C denote the parity and charge-conjugation transformations, respectively). The template fits for the polarisation observables usually use the information of both the top and antitop quark decay chains. In this case, only one polarisation value can be quoted as the result and is shown for both columns of polarisation along the same axis. The SM predictions of the polarisations at the Tevatron are slightly different~\cite {Baumgart:2013yra,pol_d0_ljets} due to the different dominant production mechanism, which is \qqbar annihilation. Dashes indicate no measurement for the corresponding analysis.\relax \relax }{table.caption.14}{}}
\@writefile{lof}{\contentsline {figure}{\numberline {5}{\ignorespaces Comparison of the measured polarisations and spin correlations (data points) with predictions from the SM (diamonds) for the parton-level measurement. Inner bars indicate uncertainties obtained from the marginalisation, outer bars indicate modelling systematics, summed in quadrature. The widths of the diamonds are chosen for illustrative purposes only.\relax }}{23}{figure.caption.15}}
\newlabel{fig:results_summary_partonic}{{5}{23}{Comparison of the measured polarisations and spin correlations (data points) with predictions from the SM (diamonds) for the parton-level measurement. Inner bars indicate uncertainties obtained from the marginalisation, outer bars indicate modelling systematics, summed in quadrature. The widths of the diamonds are chosen for illustrative purposes only.\relax \relax }{figure.caption.15}{}}
\@writefile{lof}{\contentsline {figure}{\numberline {6}{\ignorespaces Comparison of the unfolded polarisation distributions and the prediction from the signal MC simulation for the stable-particle measurement. The total uncertainty is shown in each bin. The bin-to-bin correlations between adjacent bins are typically between $-0.9$ and $-0.6$. The correlations between non-adjacent bins range from $-0.4$ to 0.6.\relax }}{24}{figure.caption.16}}
\newlabel{fig:results_particle_pol}{{6}{24}{Comparison of the unfolded polarisation distributions and the prediction from the signal MC simulation for the stable-particle measurement. The total uncertainty is shown in each bin. The bin-to-bin correlations between adjacent bins are typically between $-0.9$ and $-0.6$. The correlations between non-adjacent bins range from $-0.4$ to 0.6.\relax \relax }{figure.caption.16}{}}
\@writefile{lof}{\contentsline {figure}{\numberline {7}{\ignorespaces Comparison of the unfolded spin correlation distributions and the prediction from the signal MC simulation for the stable-particle measurement. The total uncertainty is shown in each bin. The bin-to-bin correlations between adjacent bins are typically between $-0.9$ and $-0.4$. The correlations between non-adjacent bins range from $-0.4$ to 0.6.\relax }}{25}{figure.caption.17}}
\newlabel{fig:results_particle_corr}{{7}{25}{Comparison of the unfolded spin correlation distributions and the prediction from the signal MC simulation for the stable-particle measurement. The total uncertainty is shown in each bin. The bin-to-bin correlations between adjacent bins are typically between $-0.9$ and $-0.4$. The correlations between non-adjacent bins range from $-0.4$ to 0.6.\relax \relax }{figure.caption.17}{}}
\@writefile{lof}{\contentsline {figure}{\numberline {8}{\ignorespaces Comparison of the unfolded cross correlation distributions and the prediction from the signal MC simulation for the stable-particle measurement. The total uncertainty is shown in each bin. The bin-to-bin correlations between adjacent bins are typically between $-0.9$ and $-0.7$. The correlations between non-adjacent bins range from $-0.4$ to 0.6.\relax }}{26}{figure.caption.18}}
\newlabel{fig:results_particle_crosscorr}{{8}{26}{Comparison of the unfolded cross correlation distributions and the prediction from the signal MC simulation for the stable-particle measurement. The total uncertainty is shown in each bin. The bin-to-bin correlations between adjacent bins are typically between $-0.9$ and $-0.7$. The correlations between non-adjacent bins range from $-0.4$ to 0.6.\relax \relax }{figure.caption.18}{}}
\citation{ATL-GEN-PUB-2016-002}
\@writefile{toc}{\contentsline {section}{\numberline {8}Conclusion}{27}{section.8}}
\newlabel{sec:conclusion}{{8}{27}{Conclusion\relax }{section.8}{}}
